verification/cocotb/dnn_run.log
rm -f results.xml
make -f Makefile.npu results.xml
make[1]: Entering directory '/home/firatkizilboga/TinyNPU/verification/cocotb'
rm -f results.xml
MODULE=test_npu TESTCASE= TOPLEVEL=tinynpu_top TOPLEVEL_LANG=verilog \
         sim_build/Vtop 
     -.--ns INFO     gpi                                ..mbed/gpi_embed.cpp:76   in set_program_name_in_venv        Did not detect Python virtual environment. Using system-wide Python interpreter
     -.--ns INFO     gpi                                ../gpi/GpiCommon.cpp:101  in gpi_print_registered_impl       VPI registered
     0.00ns INFO     cocotb                             Running on Verilator version 5.008 2023-03-04
     0.00ns INFO     cocotb                             Running tests with cocotb v1.8.1 from /home/firatkizilboga/.local/lib/python3.13/site-packages/cocotb
     0.00ns INFO     cocotb                             Seeding Python random module with 1770762047
     0.00ns INFO     cocotb.regression                  Found test test_npu.test_npu
     0.00ns INFO     cocotb.regression                  running test_npu (1/1)
    40.00ns INFO     cocotb.tinynpu_top                 --- Running NPU Test: dnn_example.npu ---
    40.00ns INFO     cocotb.tinynpu_top                 Loading UB (780 words)...
148240.00ns INFO     cocotb.tinynpu_top                 Loading IM (5 words)...
150140.00ns INFO     cocotb.tinynpu_top                 Triggering execution at 0x8000...
CU: BIAS_EN n_idx=    0 addr=0100 data=00030005000300040004000800080005
CU: BIAS_REQ n_idx=    0 addr=0100
CU: BIAS_EN n_idx=    1 addr=0101 data=00090008000900030003000700020004
CU: BIAS_REQ n_idx=    1 addr=0101
CU: BIAS_EN n_idx=    2 addr=0102 data=00030002000700060008000900050005
CU: BIAS_REQ n_idx=    2 addr=0102
CU: BIAS_EN n_idx=    3 addr=0103 data=00010008000600090003000300020007
CU: BIAS_REQ n_idx=    3 addr=0103
CU: BIAS_EN n_idx=    0 addr=0100 data=00030005000300040004000800080005
CU: BIAS_REQ n_idx=    0 addr=0100
CU: BIAS_EN n_idx=    1 addr=0101 data=00090008000900030003000700020004
CU: BIAS_REQ n_idx=    1 addr=0101
CU: BIAS_EN n_idx=    2 addr=0102 data=00030002000700060008000900050005
CU: BIAS_REQ n_idx=    2 addr=0102
CU: BIAS_EN n_idx=    3 addr=0103 data=00010008000600090003000300020007
CU: BIAS_REQ n_idx=    3 addr=0103
CU: BIAS_EN n_idx=    0 addr=0100 data=00030005000300040004000800080005
CU: BIAS_REQ n_idx=    0 addr=0100
CU: BIAS_EN n_idx=    1 addr=0101 data=00090008000900030003000700020004
CU: BIAS_REQ n_idx=    1 addr=0101
CU: BIAS_EN n_idx=    2 addr=0102 data=00030002000700060008000900050005
CU: BIAS_REQ n_idx=    2 addr=0102
CU: BIAS_EN n_idx=    3 addr=0103 data=00010008000600090003000300020007
CU: BIAS_REQ n_idx=    3 addr=0103
CU: BIAS_EN n_idx=    0 addr=0100 data=00030005000300040004000800080005
CU: BIAS_REQ n_idx=    0 addr=0100
CU: BIAS_EN n_idx=    1 addr=0101 data=00090008000900030003000700020004
CU: BIAS_REQ n_idx=    1 addr=0101
CU: BIAS_EN n_idx=    2 addr=0102 data=00030002000700060008000900050005
CU: BIAS_REQ n_idx=    2 addr=0102
CU: BIAS_EN n_idx=    3 addr=0103 data=00010008000600090003000300020007
CU: BIAS_REQ n_idx=    3 addr=0103
CU: BIAS_EN n_idx=    0 addr=0104 data=00010006000300090000000300010006
CU: BIAS_REQ n_idx=    0 addr=0104
CU: BIAS_EN n_idx=    1 addr=0105 data=00000007000200070006000000070006
CU: BIAS_REQ n_idx=    1 addr=0105
CU: BIAS_EN n_idx=    2 addr=0106 data=00030002000300070005000100020008
CU: BIAS_REQ n_idx=    2 addr=0106
CU: BIAS_EN n_idx=    3 addr=0107 data=00010002000900050009000800000001
CU: BIAS_REQ n_idx=    3 addr=0107
CU: BIAS_EN n_idx=    0 addr=0104 data=00010006000300090000000300010006
CU: BIAS_REQ n_idx=    0 addr=0104
CU: BIAS_EN n_idx=    1 addr=0105 data=00000007000200070006000000070006
CU: BIAS_REQ n_idx=    1 addr=0105
CU: BIAS_EN n_idx=    2 addr=0106 data=00030002000300070005000100020008
CU: BIAS_REQ n_idx=    2 addr=0106
CU: BIAS_EN n_idx=    3 addr=0107 data=00010002000900050009000800000001
CU: BIAS_REQ n_idx=    3 addr=0107
CU: BIAS_EN n_idx=    0 addr=0104 data=00010006000300090000000300010006
CU: BIAS_REQ n_idx=    0 addr=0104
CU: BIAS_EN n_idx=    1 addr=0105 data=00000007000200070006000000070006
CU: BIAS_REQ n_idx=    1 addr=0105
CU: BIAS_EN n_idx=    2 addr=0106 data=00030002000300070005000100020008
CU: BIAS_REQ n_idx=    2 addr=0106
CU: BIAS_EN n_idx=    3 addr=0107 data=00010002000900050009000800000001
CU: BIAS_REQ n_idx=    3 addr=0107
CU: BIAS_EN n_idx=    0 addr=0104 data=00010006000300090000000300010006
CU: BIAS_REQ n_idx=    0 addr=0104
CU: BIAS_EN n_idx=    1 addr=0105 data=00000007000200070006000000070006
CU: BIAS_REQ n_idx=    1 addr=0105
CU: BIAS_EN n_idx=    2 addr=0106 data=00030002000300070005000100020008
CU: BIAS_REQ n_idx=    2 addr=0106
CU: BIAS_EN n_idx=    3 addr=0107 data=00010002000900050009000800000001
CU: BIAS_REQ n_idx=    3 addr=0107
CU: BIAS_EN n_idx=    0 addr=0108 data=00050001000600040007000600080005
CU: BIAS_REQ n_idx=    0 addr=0108
CU: BIAS_EN n_idx=    1 addr=0109 data=00030001000300040009000300010005
CU: BIAS_REQ n_idx=    1 addr=0109
CU: BIAS_EN n_idx=    2 addr=010a data=00030008000100020001000400090002
CU: BIAS_REQ n_idx=    2 addr=010a
CU: BIAS_EN n_idx=    3 addr=010b data=00030008000600030002000600040009
CU: BIAS_REQ n_idx=    3 addr=010b
CU: BIAS_EN n_idx=    0 addr=0108 data=00050001000600040007000600080005
CU: BIAS_REQ n_idx=    0 addr=0108
CU: BIAS_EN n_idx=    1 addr=0109 data=00030001000300040009000300010005
CU: BIAS_REQ n_idx=    1 addr=0109
CU: BIAS_EN n_idx=    2 addr=0185200.00ns INFO     cocotb.tinynpu_top                 Execution finished. Verifying results...
214640.00ns INFO     cocotb.tinynpu_top                 ✅ Symbol 'Result' matched!
214640.00ns INFO     cocotb.tinynpu_top                 ✅ All verifications passed!
214640.00ns INFO     cocotb.regression                  test_npu passed
214640.00ns INFO     cocotb.regression                  **************************************************************************************
                                                        ** TEST                          STATUS  SIM TIME (ns)  REAL TIME (s)  RATIO (ns/s) **
                                                        **************************************************************************************
                                                        ** test_npu.test_npu              PASS      214640.00           1.25     172162.13  **
                                                        **************************************************************************************
                                                        ** TESTS=1 PASS=1 FAIL=0 SKIP=0             214640.00           1.38     155977.30  **
                                                        **************************************************************************************
                                                        
10a data=00030008000100020001000400090002
CU: BIAS_REQ n_idx=    2 addr=010a
CU: BIAS_EN n_idx=    3 addr=010b data=00030008000600030002000600040009
CU: BIAS_REQ n_idx=    3 addr=010b
CU: BIAS_EN n_idx=    0 addr=0108 data=00050001000600040007000600080005
CU: BIAS_REQ n_idx=    0 addr=0108
CU: BIAS_EN n_idx=    1 addr=0109 data=00030001000300040009000300010005
CU: BIAS_REQ n_idx=    1 addr=0109
CU: BIAS_EN n_idx=    2 addr=010a data=00030008000100020001000400090002
CU: BIAS_REQ n_idx=    2 addr=010a
CU: BIAS_EN n_idx=    3 addr=010b data=00030008000600030002000600040009
CU: BIAS_REQ n_idx=    3 addr=010b
CU: BIAS_EN n_idx=    0 addr=0108 data=00050001000600040007000600080005
CU: BIAS_REQ n_idx=    0 addr=0108
CU: BIAS_EN n_idx=    1 addr=0109 data=00030001000300040009000300010005
CU: BIAS_REQ n_idx=    1 addr=0109
CU: BIAS_EN n_idx=    2 addr=010a data=00030008000100020001000400090002
CU: BIAS_REQ n_idx=    2 addr=010a
CU: BIAS_EN n_idx=    3 addr=010b data=00030008000600030002000600040009
CU: BIAS_REQ n_idx=    3 addr=010b
- :0: Verilog $finish
make[1]: Leaving directory '/home/firatkizilboga/TinyNPU/verification/cocotb'
